*racket-host*                                                           {Nvim}

             ____            _        _     _   _           _   ~
            |  _ \ __ _  ___| | _____| |_  | | | | ___  ___| |_ ~
            | |_) / _` |/ __| |/ / _ \ __| | |_| |/ _ \/ __| __|~
            |  _ < (_| | (__|   <  __/ |_  |  _  | (_) \__ \ |_ ~
            |_| \_\__,_|\___|_|\_\___|\__| |_| |_|\___/|___/\__|~
                                                    
                                                  
Author: Alejandro "HiPhish" Sanchez
License: GNU GPLv3+


==============================================================================
TABLE OF CONTENTS                                       *racket-host-contents*
------------------------------------------------------------------------------


==============================================================================
 vim:tw=78:ts=8:ft=help:norl:

